%YAML 1.1
%TAG !u! tag:unity3d.com,2011:
--- !u!74 &7400000
AnimationClip:
  m_ObjectHideFlags: 0
  m_CorrespondingSourceObject: {fileID: 0}
  m_PrefabInstance: {fileID: 0}
  m_PrefabAsset: {fileID: 0}
  m_Name: Move
  serializedVersion: 6
  m_Legacy: 0
  m_Compressed: 0
  m_UseHighQualityCurve: 1
  m_RotationCurves: []
  m_CompressedRotationCurves: []
  m_EulerCurves: []
  m_PositionCurves: []
  m_ScaleCurves: []
  m_FloatCurves: []
  m_PPtrCurves:
  - curve:
    - time: 0
      value: {fileID: 21300000, guid: 9efe82e329158914aa8bf1eddd0b09e1, type: 3}
    - time: 0.05
      value: {fileID: 21300000, guid: 4f91fce60725b2742b682d0c0dc87321, type: 3}
    - time: 0.1
      value: {fileID: 21300000, guid: ff3d6127ccb393e459b942e01b456c10, type: 3}
    - time: 0.15
      value: {fileID: 21300000, guid: 421395896238c8445bfa97576c8165a4, type: 3}
    - time: 0.2
      value: {fileID: 21300000, guid: d3ff56188ba0e2a41a6576a65413e4ed, type: 3}
    - time: 0.25
      value: {fileID: 21300000, guid: 9bdc80fea77234443ace938455fff5f8, type: 3}
    - time: 0.3
      value: {fileID: 21300000, guid: 9efe82e329158914aa8bf1eddd0b09e1, type: 3}
    attribute: m_Sprite
    path: Sprite
    classID: 212
    script: {fileID: 0}
  m_SampleRate: 60
  m_WrapMode: 0
  m_Bounds:
    m_Center: {x: 0, y: 0, z: 0}
    m_Extent: {x: 0, y: 0, z: 0}
  m_ClipBindingConstant:
    genericBindings:
    - serializedVersion: 2
      path: 850496168
      attribute: 0
      script: {fileID: 0}
      typeID: 212
      customType: 23
      isPPtrCurve: 1
    pptrCurveMapping:
    - {fileID: 21300000, guid: 9efe82e329158914aa8bf1eddd0b09e1, type: 3}
    - {fileID: 21300000, guid: 4f91fce60725b2742b682d0c0dc87321, type: 3}
    - {fileID: 21300000, guid: ff3d6127ccb393e459b942e01b456c10, type: 3}
    - {fileID: 21300000, guid: 421395896238c8445bfa97576c8165a4, type: 3}
    - {fileID: 21300000, guid: d3ff56188ba0e2a41a6576a65413e4ed, type: 3}
    - {fileID: 21300000, guid: 9bdc80fea77234443ace938455fff5f8, type: 3}
    - {fileID: 21300000, guid: 9efe82e329158914aa8bf1eddd0b09e1, type: 3}
  m_AnimationClipSettings:
    serializedVersion: 2
    m_AdditiveReferencePoseClip: {fileID: 0}
    m_AdditiveReferencePoseTime: 0
    m_StartTime: 0
    m_StopTime: 0.3166667
    m_OrientationOffsetY: 0
    m_Level: 0
    m_CycleOffset: 0
    m_HasAdditiveReferencePose: 0
    m_LoopTime: 1
    m_LoopBlend: 0
    m_LoopBlendOrientation: 0
    m_LoopBlendPositionY: 0
    m_LoopBlendPositionXZ: 0
    m_KeepOriginalOrientation: 0
    m_KeepOriginalPositionY: 1
    m_KeepOriginalPositionXZ: 0
    m_HeightFromFeet: 0
    m_Mirror: 0
  m_EditorCurves: []
  m_EulerEditorCurves: []
  m_HasGenericRootTransform: 0
  m_HasMotionFloatCurves: 0
  m_Events: []
